[
    {
        "description": "Calendar Booklet using BookletTemplateNamed",
        "sheet_size": "letter",
        "sheet_orientation": "landscape",
        "page_size": "junior",
        "page_orientation": "portrait",
        "booklet_config": {
            "booklet_group": "calendars",
            "booklet_type": "monthly",
            "booklet_params": {
                "year": 2019
            }
        }
    },
    {
        "description": "DotGrid Booklet using BookletTemplateNamed",
        "sheet_size": "letter",
        "sheet_orientation": "landscape",
        "layout": "reader",
        "page_size": "junior",
        "page_orientation": "portrait",
        "booklet_config": {
            "booklet_group": "_gridsamples",
            "booklet_type": "gridsamples",
            "booklet_params": {
                "base_color": "red"
            }
        }
    },
    {
        "description": "DotGrid Booklet using BookletTemplateNamedParams",
        "sheet_size": "letter",
        "sheet_orientation": "landscape",
        "page_size": "junior",
        "page_orientation": "portrait",
        "page_count": 4,
        "theme": null,
        "header_group": null,
        "header_id": null,
        "header_param_ids": [],
        "footer_group": null,
        "footer_id": null,
        "footer_param_ids": [],
        "body_group": "grids",
        "body_id": "dotgrid",
        "body_param_ids": [
            "2000in", "bluenred", "thin_semimajor_major"
        ]
    },
    {
        "description": "DotGrid Booklet using base Booklet",
        "sheet_size": "letter",
        "sheet_orientation": "landscape",
        "layout": "reader",
        "base_path": "test_booklet/test_booklet",
        "base_name": "test_booklet1",
        "pages": [
            {
                "size": "letter",
                "orientation": "portrait",
                "punch_edge": "right",
                "header_height": [0, "in"],
                "footer_height": [0, "in"],
                "margins": null,
                "theme": null,
                "page_number": 1,
                "header": null,
                "footer": null,
                "body": {
                    "group": "grids",
                    "type": "dotgrid",
                    "params": {

                        "colors": {
                            "minor": "",
                            "semi_major": "", 
                            "major": "",
                            "border": ""
                        },
                        "sizes": {
                            "minor": [0, "in"],
                            "semi_major": [0, "in"],
                            "major": [0, "in"],
                            "border": [0, "in"]
                        },
                        "spacing": {
                            "pitch": [0, "in"],
                            "sub_squares": 10
                        }
                    }
                }
            },
            {
                "size": "letter",
                "orientation": "portrait",
                "punch_edge": "left",
                "header_height": [0, "in"],
                "footer_height": [0, "in"],
                "margins": null,
                "theme": null,
                "page_number": 2,
                "header": null,
                "footer": null,
                "body": {
                    "group": "grids",
                    "type": "dotgrid",
                    "params": {

                        "colors": {
                            "minor": "",
                            "semi_major": "", 
                            "major": "",
                            "border": ""
                        },
                        "sizes": {
                            "minor": [0, "in"],
                            "semi_major": [0, "in"],
                            "major": [0, "in"],
                            "border": [0, "in"]
                        },
                        "spacing": {
                            "pitch": [0, "in"],
                            "sub_squares": 10
                        }
                    }
                }
            },
            {
                "size": "letter",
                "orientation": "portrait",
                "punch_edge": "right",
                "header_height": [0, "in"],
                "footer_height": [0, "in"],
                "margins": null,
                "theme": null,
                "page_number": 3,
                "header": null,
                "footer": null,
                "body": {
                    "group": "grids",
                    "type": "dotgrid",
                    "params": {

                        "colors": {
                            "minor": "",
                            "semi_major": "", 
                            "major": "",
                            "border": ""
                        },
                        "sizes": {
                            "minor": [0, "in"],
                            "semi_major": [0, "in"],
                            "major": [0, "in"],
                            "border": [0, "in"]
                        },
                        "spacing": {
                            "pitch": [0, "in"],
                            "sub_squares": 10
                        }
                    }
                }
            },
            {
                "size": "letter",
                "orientation": "portrait",
                "punch_edge": "left",
                "header_height": [0, "in"],
                "footer_height": [0, "in"],
                "margins": null,
                "theme": null,
                "page_number": 4,
                "header": null,
                "footer": null,
                "body": {
                    "group": "grids",
                    "type": "dotgrid",
                    "params": {

                        "colors": {
                            "minor": "",
                            "semi_major": "", 
                            "major": "",
                            "border": ""
                        },
                        "sizes": {
                            "minor": [0, "in"],
                            "semi_major": [0, "in"],
                            "major": [0, "in"],
                            "border": [0, "in"]
                        },
                        "spacing": {
                            "pitch": [0, "in"],
                            "sub_squares": 10
                        }
                    }
                }
            }
        ]
    
    }
]